^C:\USERS\SACHA\GOOGLE DRIVE\COURS\IAP\PROJET\SPRINT_5\SPRINT_5\SPRINT_5.C
C:\USERS\SACHA\GOOGLE DRIVE\COURS\IAP\PROJET\SPRINT_5\SPRINT_5\RELEASE\VC141.PDB
C:\USERS\SACHA\GOOGLE DRIVE\COURS\IAP\PROJET\SPRINT_5\SPRINT_5\RELEASE\SPRINT_5.OBJ
