^C:\Users\Sacha\Google Drive\Cours\IAP\Projet\Sprint_5\Sprint_5\Sprint_5.vcxproj
C:\Users\Sacha\Google Drive\Cours\IAP\Projet\Sprint_5\Release\Sprint_5.ipdb
C:\Users\Sacha\Google Drive\Cours\IAP\Projet\Sprint_5\Release\Sprint_5.iobj
^C:\Users\Sacha\Google Drive\Cours\IAP\Projet\Sprint_5\Sprint_5\Sprint_5.vcxproj
C:\Users\Sacha\Google Drive\Cours\IAP\Projet\Sprint_5\Release\Sprint_5.ipdb
C:\Users\Sacha\Google Drive\Cours\IAP\Projet\Sprint_5\Release\Sprint_5.iobj
